…
    ## # A tibble: 4 × 1
    ##   cancelations
    ##          <int>
    ## 1           12
    ## 2           11
    ## 3           10
    ## 4           10

``` r
# cancellations in ascending order
uber_data %>% filter(Status == "Cancelled") %>% group_by(`Driver id`) %>% count()
```

    ## # A tibble: 295 × 2
    ## # Groups:   Driver id [295]
    ##    `Driver id`     n
    ##          <dbl> <int>
    ##  1           1     4
    ##  2           2     4
    ##  3           3     4
    ##  4           4     5
    ##  5           5     2
    ##  6           6     4
    ##  7           7     3
    ##  8           8     3
    ##  9           9     6
    ## 10          10     3
    ## # … with 285 more rows
…
